EESchema Schematic File Version 4
EELAYER 30 0
EELAYER END
$Descr A4 11693 8268
encoding utf-8
Sheet 1 1
Title "Digital Weather module"
Date "2023-08-26"
Rev "B"
Comp "Vi Lugão"
Comment1 ""
Comment2 ""
Comment3 ""
Comment4 ""
$EndDescr
$Comp
L Device:R R1
U 1 1 5C44DA39
P 5250 2750
F 0 "R1" H 5320 2796 50  0000 L CNN
F 1 "10K" H 5320 2705 50  0000 L CNN
F 2 "Resistor_THT:R_Axial_DIN0207_L6.3mm_D2.5mm_P10.16mm_Horizontal" V 5180 2750 50  0001 C CNN
F 3 "~" H 5250 2750 50  0001 C CNN
	1    5250 2750
	1    0    0    -1  
$EndComp
$Comp
L Device:Thermistor_NTC TH1
U 1 1 5C44DA7E
P 5250 3250
F 0 "TH1" H 5347 3296 50  0000 L CNN
F 1 "NTC 10K" H 5347 3205 50  0000 L CNN
F 2 "Capacitor_THT:C_Disc_D5.0mm_W2.5mm_P2.50mm" H 5250 3250 50  0001 C CNN
F 3 "~" H 5250 3250 50  0000 C CNN
	1    5250 3250
	1    0    0    -1  
$EndComp
$Comp
L Connector:Conn_01x05_Female J3
U 1 1 5C46354A
P 10000 3000
F 0 "J3" H 10028 3026 50  0000 L CNN
F 1 "BMP180_breakout" H 10028 2935 50  0000 L CNN
F 2 "Connector_PinSocket_2.54mm:PinSocket_1x05_P2.54mm_Vertical" H 10000 3000 50  0001 C CNN
F 3 "~" H 10000 3000 50  0000 C CNN
	1    10000 3000
	1    0    0    -1  
$EndComp
Text Label 8500 3200 0    60   ~ 0
SDA
Wire Notes Line
	5750 2350 5000 2350
Wire Notes Line
	5000 3800 5750 3800
Wire Notes Line
	5750 3800 5750 2350
Text Notes 5050 3750 0    60   ~ 0
Thermistor
Text Notes 6800 6250 0    60   ~ 0
LCD
Text Notes 9300 3450 0    60   ~ 0
BMP180
$Comp
L power:+3V3 #PWR011
U 1 1 5C46001D
P 9000 2800
F 0 "#PWR011" H 9000 2650 50  0001 C CNN
F 1 "+3V3" H 9015 2973 50  0000 C CNN
F 2 "" H 9000 2800 50  0000 C CNN
F 3 "" H 9000 2800 50  0000 C CNN
	1    9000 2800
	1    0    0    -1  
$EndComp
NoConn ~ 9800 2800
$Comp
L power:+3V3 #PWR01
U 1 1 5DD20C25
P 2500 3350
F 0 "#PWR01" H 2500 3200 50  0001 C CNN
F 1 "+3V3" H 2515 3523 50  0000 C CNN
F 2 "" H 2500 3350 50  0000 C CNN
F 3 "" H 2500 3350 50  0000 C CNN
	1    2500 3350
	1    0    0    -1  
$EndComp
Text Label 1750 4850 0    50   ~ 0
SDA
Text Label 1750 4950 0    50   ~ 0
SCL
Text Label 1750 4550 0    50   ~ 0
A1
Text Label 4750 3000 0    50   ~ 0
A1
Text Label 6500 3000 0    50   ~ 0
A3
Text Label 1750 4750 0    50   ~ 0
A3
Text Label 6250 4650 0    60   ~ 0
LCD_E
Text Label 6250 4850 0    60   ~ 0
LCD_RS
Text Label 6250 5550 0    60   ~ 0
D4
Text Label 6250 5650 0    60   ~ 0
D5
Text Label 6250 5750 0    60   ~ 0
D6
Text Label 6250 5850 0    60   ~ 0
D7
$Comp
L power:+5V #PWR07
U 1 1 5DD3873C
P 5250 2600
F 0 "#PWR07" H 5250 2450 50  0001 C CNN
F 1 "+5V" H 5265 2773 50  0000 C CNN
F 2 "" H 5250 2600 50  0001 C CNN
F 3 "" H 5250 2600 50  0001 C CNN
	1    5250 2600
	1    0    0    -1  
$EndComp
$Comp
L power:+5V #PWR09
U 1 1 5DD39764
P 7500 2700
F 0 "#PWR09" H 7500 2550 50  0001 C CNN
F 1 "+5V" H 7515 2873 50  0000 C CNN
F 2 "" H 7500 2700 50  0001 C CNN
F 3 "" H 7500 2700 50  0001 C CNN
	1    7500 2700
	1    0    0    -1  
$EndComp
$Comp
L power:+5V #PWR03
U 1 1 5DD39B04
P 2200 3350
F 0 "#PWR03" H 2200 3200 50  0001 C CNN
F 1 "+5V" H 2215 3523 50  0000 C CNN
F 2 "" H 2200 3350 50  0001 C CNN
F 3 "" H 2200 3350 50  0001 C CNN
	1    2200 3350
	1    0    0    -1  
$EndComp
$Comp
L Sensor:DHT11 U1
U 1 1 5DD3ACDA
P 7500 3000
F 0 "U1" H 7256 3046 50  0000 R CNN
F 1 "DHT11" H 7256 2955 50  0000 R CNN
F 2 "Sensor:Aosong_DHT11_5.5x12.0_P2.54mm" H 7500 2600 50  0001 C CNN
F 3 "http://akizukidenshi.com/download/ds/aosong/DHT11.pdf" H 7650 3250 50  0001 C CNN
	1    7500 3000
	-1   0    0    -1  
$EndComp
$Comp
L power:GND #PWR010
U 1 1 5DD3D636
P 7500 3300
F 0 "#PWR010" H 7500 3050 50  0001 C CNN
F 1 "GND" H 7505 3127 50  0000 C CNN
F 2 "" H 7500 3300 50  0001 C CNN
F 3 "" H 7500 3300 50  0001 C CNN
	1    7500 3300
	1    0    0    -1  
$EndComp
$Comp
L power:+5V #PWR014
U 1 1 5DD5213B
P 7250 4450
F 0 "#PWR014" H 7250 4300 50  0001 C CNN
F 1 "+5V" H 7265 4623 50  0000 C CNN
F 2 "" H 7250 4450 50  0001 C CNN
F 3 "" H 7250 4450 50  0001 C CNN
	1    7250 4450
	1    0    0    -1  
$EndComp
$Comp
L power:GND #PWR015
U 1 1 5DD528EC
P 7250 6050
F 0 "#PWR015" H 7250 5800 50  0001 C CNN
F 1 "GND" H 7255 5877 50  0000 C CNN
F 2 "" H 7250 6050 50  0001 C CNN
F 3 "" H 7250 6050 50  0001 C CNN
	1    7250 6050
	1    0    0    -1  
$EndComp
Wire Wire Line
	6250 5550 6850 5550
Wire Wire Line
	6850 5650 6250 5650
Wire Wire Line
	6250 5750 6850 5750
Wire Wire Line
	6850 5850 6250 5850
$Comp
L Device:R_POT_TRIM RV1
U 1 1 5DD58A0E
P 8000 4650
F 0 "RV1" H 7930 4696 50  0000 R CNN
F 1 "10K" H 7930 4605 50  0000 R CNN
F 2 "" H 8000 4650 50  0001 C CNN
F 3 "~" H 8000 4650 50  0001 C CNN
	1    8000 4650
	-1   0    0    -1  
$EndComp
Wire Wire Line
	6850 4650 6250 4650
Wire Wire Line
	6250 4850 6850 4850
Wire Notes Line
	6750 4200 8250 4200
Wire Notes Line
	8250 4200 8250 6300
Wire Notes Line
	8250 6300 6750 6300
Wire Notes Line
	6750 6300 6750 4200
NoConn ~ 6850 5150
NoConn ~ 6850 5250
NoConn ~ 6850 5350
NoConn ~ 6850 5450
Wire Wire Line
	3000 4250 3250 4250
Wire Wire Line
	3250 4350 3000 4350
Wire Wire Line
	3000 4450 3250 4450
Wire Wire Line
	3250 4550 3000 4550
Wire Wire Line
	2200 3350 2200 3400
Wire Wire Line
	2200 3400 2300 3400
Wire Wire Line
	2300 3400 2300 3450
Wire Wire Line
	2500 3350 2500 3400
Wire Wire Line
	2500 3400 2400 3400
Wire Wire Line
	2400 3400 2400 3450
$Comp
L power:GND #PWR02
U 1 1 5E1080AA
P 2500 5650
F 0 "#PWR02" H 2500 5400 50  0001 C CNN
F 1 "GND" H 2505 5477 50  0000 C CNN
F 2 "" H 2500 5650 50  0001 C CNN
F 3 "" H 2500 5650 50  0001 C CNN
	1    2500 5650
	1    0    0    -1  
$EndComp
NoConn ~ 2400 5550
Wire Notes Line
	6750 2450 8050 2450
Wire Notes Line
	8050 2450 8050 3550
Wire Notes Line
	8050 3550 6750 3550
Wire Notes Line
	6750 3550 6750 2450
Text Notes 7050 3500 0    60   ~ 0
DHT11
$Comp
L power:GND #PWR013
U 1 1 6171D656
P 6850 4750
F 0 "#PWR013" H 6850 4500 50  0001 C CNN
F 1 "GND" V 6855 4622 50  0000 R CNN
F 2 "" H 6850 4750 50  0001 C CNN
F 3 "" H 6850 4750 50  0001 C CNN
	1    6850 4750
	0    1    1    0   
$EndComp
$Comp
L Device:R R2
U 1 1 6179D0F1
P 7000 2850
F 0 "R2" H 6931 2896 50  0000 R CNN
F 1 "10K" H 6931 2805 50  0000 R CNN
F 2 "Resistor_SMD:R_0805_2012Metric" V 6930 2850 50  0001 C CNN
F 3 "~" H 7000 2850 50  0001 C CNN
	1    7000 2850
	1    0    0    -1  
$EndComp
$Comp
L power:PWR_FLAG #FLG01
U 1 1 6184E015
P 2500 5650
F 0 "#FLG01" H 2500 5725 50  0001 C CNN
F 1 "PWR_FLAG" V 2500 5778 50  0001 L CNN
F 2 "" H 2500 5650 50  0001 C CNN
F 3 "~" H 2500 5650 50  0001 C CNN
	1    2500 5650
	0    1    1    0   
$EndComp
Wire Wire Line
	2500 5650 2500 5550
Connection ~ 2500 5650
NoConn ~ 2600 5550
Text Label 1750 4650 0    50   ~ 0
A2
Text Label 4750 3500 0    50   ~ 0
A2
Wire Wire Line
	5250 3500 5250 3400
Text Label 3250 4250 2    50   ~ 0
D4
Text Label 3250 4350 2    50   ~ 0
D5
Text Label 3250 4450 2    50   ~ 0
D6
Text Label 3250 4550 2    50   ~ 0
D7
Text Label 3500 4150 2    50   ~ 0
LCD_E
Text Label 3500 4050 2    50   ~ 0
LCD_RS
$Comp
L MCU_Module:Arduino_UNO_R3 A1
U 1 1 5DDDE70E
P 2500 4450
F 0 "A1" H 2850 5400 50  0000 C CNN
F 1 "Arduino_UNO_R3" H 2000 5400 50  0000 C CNN
F 2 "" H 2650 3400 50  0001 L CNN
F 3 "https://www.arduino.cc/en/Main/arduinoBoardUno" H 2300 5500 50  0001 C CNN
	1    2500 4450
	-1   0    0    -1  
$EndComp
NoConn ~ 2600 3450
NoConn ~ 3000 3850
NoConn ~ 3000 3950
NoConn ~ 3000 4850
NoConn ~ 3000 4750
NoConn ~ 2000 3850
NoConn ~ 2000 4050
NoConn ~ 2000 4250
NoConn ~ 2000 4450
NoConn ~ 2000 5150
NoConn ~ 2000 5250
NoConn ~ 3000 4950
NoConn ~ 3000 5050
NoConn ~ 3000 5150
Text Label 8500 3100 0    60   ~ 0
SCL
Wire Notes Line
	5000 3800 5000 2350
Wire Wire Line
	7850 4650 7650 4650
$Comp
L Connector:Conn_01x06_Male J2
U 1 1 63823F04
P 1300 4650
F 0 "J2" H 1273 4624 50  0000 R CNN
F 1 "Ard_Analog" H 1273 4533 50  0000 R CNN
F 2 "Connector_PinHeader_2.54mm:PinHeader_1x06_P2.54mm_Vertical" H 1300 4650 50  0001 C CNN
F 3 "~" H 1300 4650 50  0001 C CNN
	1    1300 4650
	1    0    0    -1  
$EndComp
NoConn ~ 1500 4450
Wire Wire Line
	1500 4550 2000 4550
Wire Wire Line
	1500 4650 2000 4650
Wire Wire Line
	1500 4750 2000 4750
Wire Wire Line
	1500 4850 2000 4850
Wire Wire Line
	1500 4950 2000 4950
NoConn ~ 1500 4200
$Comp
L power:GND #PWR0101
U 1 1 63830B09
P 1500 4100
F 0 "#PWR0101" H 1500 3850 50  0001 C CNN
F 1 "GND" V 1505 3972 50  0000 R CNN
F 2 "" H 1500 4100 50  0001 C CNN
F 3 "" H 1500 4100 50  0001 C CNN
	1    1500 4100
	0    -1   -1   0   
$EndComp
$Comp
L power:+5V #PWR0102
U 1 1 6383138B
P 1500 4000
F 0 "#PWR0102" H 1500 3850 50  0001 C CNN
F 1 "+5V" V 1515 4128 50  0000 L CNN
F 2 "" H 1500 4000 50  0001 C CNN
F 3 "" H 1500 4000 50  0001 C CNN
	1    1500 4000
	0    1    1    0   
$EndComp
$Comp
L power:+3V3 #PWR0103
U 1 1 63831A56
P 1500 3900
F 0 "#PWR0103" H 1500 3750 50  0001 C CNN
F 1 "+3V3" V 1515 4028 50  0000 L CNN
F 2 "" H 1500 3900 50  0001 C CNN
F 3 "" H 1500 3900 50  0001 C CNN
	1    1500 3900
	0    1    1    0   
$EndComp
$Comp
L Connector:Conn_01x05_Male J1
U 1 1 63833498
P 1300 4100
F 0 "J1" H 1273 4032 50  0000 R CNN
F 1 "Ard_Power" H 1273 4123 50  0000 R CNN
F 2 "Connector_PinHeader_2.54mm:PinHeader_1x05_P2.54mm_Vertical" H 1300 4100 50  0001 C CNN
F 3 "~" H 1300 4100 50  0001 C CNN
	1    1300 4100
	1    0    0    1   
$EndComp
NoConn ~ 1500 4300
Wire Wire Line
	5250 2900 5250 3000
Wire Wire Line
	4750 3000 5250 3000
Connection ~ 5250 3000
Wire Wire Line
	5250 3000 5250 3100
Wire Wire Line
	4750 3500 5250 3500
Wire Wire Line
	7200 3000 7000 3000
Connection ~ 7000 3000
Wire Wire Line
	7000 3000 6500 3000
Wire Wire Line
	7000 2700 7500 2700
Connection ~ 7500 2700
$Comp
L power:GND #PWR0111
U 1 1 64E1D290
P 9800 3000
F 0 "#PWR0111" H 9800 2750 50  0001 C CNN
F 1 "GND" V 9805 2872 50  0000 R CNN
F 2 "" H 9800 3000 50  0001 C CNN
F 3 "" H 9800 3000 50  0001 C CNN
	1    9800 3000
	0    1    1    0   
$EndComp
Wire Wire Line
	8500 3100 9000 3100
Wire Wire Line
	9800 3200 9250 3200
Wire Wire Line
	7250 4450 8000 4450
Wire Wire Line
	8000 4450 8000 4500
Connection ~ 7250 4450
Wire Wire Line
	3000 4050 3500 4050
Wire Wire Line
	3500 4150 3000 4150
NoConn ~ 7650 4950
NoConn ~ 7650 5050
Wire Wire Line
	8000 4800 8000 6050
Wire Wire Line
	8000 6050 7250 6050
Connection ~ 7250 6050
NoConn ~ 3000 4650
$Comp
L Display_Character:WC1602A DS1
U 1 1 5C448DE7
P 7250 5250
F 0 "DS1" H 7020 6000 50  0000 C CNN
F 1 "WC1602A" H 7460 6000 50  0000 C CNN
F 2 "" H 7250 4350 50  0001 C CIN
F 3 "http://www.wincomlcd.com/pdf/WC1602A-SFYLYHTC06.pdf" H 7950 5250 50  0001 C CNN
	1    7250 5250
	1    0    0    -1  
$EndComp
$Comp
L Device:R R3
U 1 1 64EA0168
P 9000 2950
F 0 "R3" H 8931 2996 50  0000 R CNN
F 1 "10K" H 8931 2905 50  0000 R CNN
F 2 "Resistor_SMD:R_0805_2012Metric" V 8930 2950 50  0001 C CNN
F 3 "~" H 9000 2950 50  0001 C CNN
	1    9000 2950
	1    0    0    -1  
$EndComp
Connection ~ 9000 3100
Wire Wire Line
	9000 3100 9800 3100
$Comp
L Device:R R4
U 1 1 64EA048A
P 9250 3050
F 0 "R4" H 9320 3096 50  0000 L CNN
F 1 "10K" H 9320 3005 50  0000 L CNN
F 2 "Resistor_SMD:R_0805_2012Metric" V 9180 3050 50  0001 C CNN
F 3 "~" H 9250 3050 50  0001 C CNN
	1    9250 3050
	1    0    0    -1  
$EndComp
Connection ~ 9250 3200
Wire Wire Line
	9250 3200 8500 3200
Wire Wire Line
	9250 2900 9800 2900
Wire Wire Line
	9250 2800 9000 2800
Connection ~ 9000 2800
Wire Wire Line
	9250 2900 9250 2800
Connection ~ 9250 2900
Wire Notes Line
	8750 2500 8750 3500
Wire Notes Line
	8750 3500 10750 3500
Wire Notes Line
	10750 3500 10750 2500
Wire Notes Line
	10750 2500 8750 2500
$EndSCHEMATC
